{
  "meta" :{
    "layout" :"twoColumn",
    "background":{
      "type":"color",
      "color":"0xFF98A4"
    }
  },
  "menu":{
    "menuId":1,
    "autoHide": true
  },
  "main":[
    {
      "type": "md",
      "title": "Wellcome text",
      "content":"This is a simple text box"
    },{
      "type": "wiki",
      "titel": "Simple wiki page",
      "wikiId":12
    }
  ],
  "footer":[
    {
      "type": "md",
      "title": "Footer text",
      "content":"This is a simple text box"
    },{
      "type": "menu",
      "titel": "Simple menu",
      "menuId":12
    }
  ]
}
